Season summary: 4545 League, Season 13
…
Top 100 shown.

Time trouble addicts

Shows players by proportion of moves made in time trouble (defined as having less than a minute remaining on the clock).

Includes everyone who played at least 100 moves over the season while making at least one move in time trouble.

Saved by the bell

Games where a player moved with only 5 seconds left on their clockand still won!

Team stats (4545 only)

## # A tibble: 27 x 12
##    team                               players games pts_nonforf  wins draws losses  acpl avg_moves blunder_pc  rank points
##    <chr>                                <int> <int>       <dbl> <int> <int>  <int> <dbl>     <dbl>      <dbl> <int>  <dbl>
##  1 "<U+203E>\\_(<U+30C4>)_/<U+203E>"                            8    40        15.5    13     5     22  47.9      36.1     0.0471    NA   NA  
##  2 "Alekhine Think of Is Mate"              7    43        22      19     6     18  46.7      35       0.0399     7   25  
##  3 "Baked-a-Lasker"                        11    37        22      19     6     12  44.7      36.9     0.0308     8   26.5
##  4 "Bend it like Larsen"                   10    37        14      12     4     21  44.5      33.9     0.0423    19   19.5
##  5 "Blockaders"                             9    42        19.5    15     9     18  49.4      37.5     0.0527    20   22  
##  6 "Castle Long And Prosper"               12    32        13       9     8     15  42.9      36.8     0.0365    11   24  
##  7 "Don't think twice, it's alright"       13    37        21.5    17     9     11  39.2      35.4     0.0283     4   26  
##  8 "Flying Mates"                           9    27        16      13     6      8  42.7      43.1     0.0352     6   25.5
##  9 "Gang Of Dark Squares"                   8    36        20.5    17     7     12  35.6      41.1     0.0243     3   27.5
## 10 "Kings and Queens and Guillotines"      14    37        18.5    15     7     15  52.1      40.9     0.0503    14   23.5
## # ... with 17 more rows
…
